Week 4: Predicting Student Achievement
…
gradebook <- read_csv("Data/gradebook-summary.csv")

Rows: 717 Columns: 4
── Column specification ────────────────────────────────────────────────────────
Delimiter: ","
chr (1): course_id
dbl (3): student_id, total_points_possible, total_points_earned

ℹ Use `spec()` to retrieve the full column specification for this data.
ℹ Specify the column types or set `show_col_types = FALSE` to quiet this message.

gradebook

# A tibble: 717 × 4
   student_id course_id     total_points_possible total_points_earned
        <dbl> <chr>                         <dbl>               <dbl>
 1      43146 FrScA-S216-02                  1217               1150 
 2      44638 OcnA-S116-01                   1676               1384.
 3      47448 FrScA-S216-01                  1232               1116 
 4      47979 OcnA-S216-01                   1833               1493.
 5      48797 PhysA-S116-01                  2225               1995.
 6      51943 FrScA-S216-03                  1222                 70 
 7      52326 AnPhA-S216-01                  1775               1519.
 8      52446 PhysA-S116-01                  2225               2198 
 9      53447 FrScA-S116-01                  1212               1173 
10      53475 FrScA-S116-02                  1212                  0 
# ℹ 707 more rows
…
survey <- read_csv("Data/survey.csv")

Rows: 662 Columns: 26
── Column specification ────────────────────────────────────────────────────────
Delimiter: ","
chr   (3): course_id, subject, semester
dbl  (20): student_id, section, int, val, percomp, tv, q1, q2, q3, q4, q5, q...
dttm  (3): date.x, date.y, date

ℹ Use `spec()` to retrieve the full column specification for this data.
ℹ Specify the column types or set `show_col_types = FALSE` to quiet this message.

survey

# A tibble: 662 × 26
   student_id course_id subject semester section   int   val percomp    tv    q1
        <dbl> <chr>     <chr>   <chr>      <dbl> <dbl> <dbl>   <dbl> <dbl> <dbl>
 1      43146 FrScA-S2… FrScA   S216           2   4.2  3.67     4    3.86     4
 2      44638 OcnA-S11… OcnA    S116           1   4    3        3    3.57     4
 3      47448 FrScA-S2… FrScA   S216           1   4.2  3        3    3.71     5
 4      47979 OcnA-S21… OcnA    S216           1   4    3.67     2.5  3.86     4
 5      48797 PhysA-S1… PhysA   S116           1   3.8  3.67     3.5  3.71     4
 6      51943 FrScA-S2… FrScA   S216           3   3.8  3.67     3.5  3.71     4
 7      52326 AnPhA-S2… AnPhA   S216           1   3.6  4        3    4        4
 8      52446 PhysA-S1… PhysA   S116           1   4.2  3.67     3    4        4
 9      53447 FrScA-S1… FrScA   S116           1   3.8  2        3    3        5
10      53475 FrScA-S2… FrScA   S216           1   4.8  3.33     4    4.14     5
# ℹ 652 more rows
# ℹ 16 more variables: q2 <dbl>, q3 <dbl>, q4 <dbl>, q5 <dbl>, q6 <dbl>,
#   q7 <dbl>, q8 <dbl>, q9 <dbl>, q10 <dbl>, date.x <dttm>, post_int <dbl>,
#   post_uv <dbl>, post_tv <dbl>, post_percomp <dbl>, date.y <dttm>,
#   date <dttm>
…
View Data

Once your data is in R, there are many different ways you can view it. Give each of the following at try:

# enter the name of your data frame and view directly in the console or a code chunk
survey

# A tibble: 662 × 26
   student_id course_id subject semester section   int   val percomp    tv    q1
        <dbl> <chr>     <chr>   <chr>      <dbl> <dbl> <dbl>   <dbl> <dbl> <dbl>
 1      43146 FrScA-S2… FrScA   S216           2   4.2  3.67     4    3.86     4
 2      44638 OcnA-S11… OcnA    S116           1   4    3        3    3.57     4
 3      47448 FrScA-S2… FrScA   S216           1   4.2  3        3    3.71     5
 4      47979 OcnA-S21… OcnA    S216           1   4    3.67     2.5  3.86     4
 5      48797 PhysA-S1… PhysA   S116           1   3.8  3.67     3.5  3.71     4
 6      51943 FrScA-S2… FrScA   S216           3   3.8  3.67     3.5  3.71     4
 7      52326 AnPhA-S2… AnPhA   S216           1   3.6  4        3    4        4
 8      52446 PhysA-S1… PhysA   S116           1   4.2  3.67     3    4        4
 9      53447 FrScA-S1… FrScA   S116           1   3.8  2        3    3        5
10      53475 FrScA-S2… FrScA   S216           1   4.8  3.33     4    4.14     5
# ℹ 652 more rows
# ℹ 16 more variables: q2 <dbl>, q3 <dbl>, q4 <dbl>, q5 <dbl>, q6 <dbl>,
#   q7 <dbl>, q8 <dbl>, q9 <dbl>, q10 <dbl>, date.x <dttm>, post_int <dbl>,
#   post_uv <dbl>, post_tv <dbl>, post_percomp <dbl>, date.y <dttm>,
#   date <dttm>
…
Hint: Try to modify the code from above (in which you separated course_var into two variables) based on a) the name of the variable in df2 and b) adding the name for the third new variable you wish to create.

Let’s return back to our time_spent data frame, now. It is often helpful to take a look at the data before writing code.

Below, we will load time_spent and run the separate() function with the course_id variable to split up the subject, semester, and section so we can use them later on. In other words, whereas above we separated the variable course_variable, in the data set we’ll use here, we’ll separate the course_id variable.

time_spent |>
  separate(course_id,
           c("subject", "semester", "section"))

# A tibble: 716 × 8
   student_id subject semester section gender enrollment_reason                 
        <dbl> <chr>   <chr>    <chr>   <chr>  <chr>                             
 1      60186 AnPhA   S116     01      M      Course Unavailable at Local School
 2      66693 AnPhA   S116     01      M      Course Unavailable at Local School
 3      66811 AnPhA   S116     01      F      Course Unavailable at Local School
 4      66862 AnPhA   S116     01      F      Course Unavailable at Local School
 5      67508 AnPhA   S116     01      F      Scheduling Conflict               
 6      70532 AnPhA   S116     01      F      Learning Preference of the Student
 7      77010 AnPhA   S116     01      F      Learning Preference of the Student
 8      85249 AnPhA   S116     01      F      Course Unavailable at Local School
 9      85411 AnPhA   S116     01      F      Scheduling Conflict               
10      85583 AnPhA   S116     01      F      Scheduling Conflict               
# ℹ 706 more rows
# ℹ 2 more variables: enrollment_status <chr>, time_spent <dbl>
Your Turn ⤵

There is one last key step – one that is likely to be a bit disorienting at first. Once we’ve processed the data how we would like, we have to assign, or save, the results back to the name for the data with which we have been working. This is done with the assignment operator, or the <- symbol.

Copy the code you successfully ran in the chunk above to follow the assignment operator in the chunk below. In other words, write the code you wrote above, but assign the output back to time_spent so that it now includes the course id separated into three distinct variables.

# YOUR CODE HERE
time_spent |>
  separate(time_spent,
           c("subject", "semester", "section"))

Warning: Expected 3 pieces. Missing pieces filled with `NA` in 711 rows [1, 2, 3, 4, 5,
6, 7, 8, 9, 10, 11, 12, 13, 14, 15, 16, 17, 18, 19, 20, ...].

# A tibble: 716 × 8
   student_id course_id     gender enrollment_reason   enrollment_status subject
        <dbl> <chr>         <chr>  <chr>               <chr>             <chr>  
 1      60186 AnPhA-S116-01 M      Course Unavailable… Approved/Enrolled 2087   
 2      66693 AnPhA-S116-01 M      Course Unavailable… Approved/Enrolled 2309   
 3      66811 AnPhA-S116-01 F      Course Unavailable… Approved/Enrolled 5298   
 4      66862 AnPhA-S116-01 F      Course Unavailable… Approved/Enrolled 1746   
 5      67508 AnPhA-S116-01 F      Scheduling Conflict Approved/Enrolled 2668   
 6      70532 AnPhA-S116-01 F      Learning Preferenc… Approved/Enrolled 2938   
 7      77010 AnPhA-S116-01 F      Learning Preferenc… Approved/Enrolled 1533   
 8      85249 AnPhA-S116-01 F      Course Unavailable… Approved/Enrolled 1209   
 9      85411 AnPhA-S116-01 F      Scheduling Conflict Approved/Enrolled 473    
10      85583 AnPhA-S116-01 F      Scheduling Conflict Approved/Enrolled 5532   
# ℹ 706 more rows
# ℹ 2 more variables: semester <chr>, section <chr>

Note: It would have been perfectly acceptable, and in some cases preferable, to assign to a new name such as time_spent_tidy. However, to help keep our environment pane from becoming too cluttered and avoid confusion, we will reuse the same object name.

We have made a habit of continually looking at our data after running code to ensure that the step worked as intended. Type the name of the data we have been working with in the code chunk below to ensure that the course_id variable has been separated into three variables that correspond to the subject, semester, and section.

# YOUR CODE HERE
time_spent

# A tibble: 716 × 6
   student_id course_id    gender enrollment_reason enrollment_status time_spent
        <dbl> <chr>        <chr>  <chr>             <chr>                  <dbl>
 1      60186 AnPhA-S116-… M      Course Unavailab… Approved/Enrolled      2087.
 2      66693 AnPhA-S116-… M      Course Unavailab… Approved/Enrolled      2309.
 3      66811 AnPhA-S116-… F      Course Unavailab… Approved/Enrolled      5299.
 4      66862 AnPhA-S116-… F      Course Unavailab… Approved/Enrolled      1747.
 5      67508 AnPhA-S116-… F      Scheduling Confl… Approved/Enrolled      2668.
 6      70532 AnPhA-S116-… F      Learning Prefere… Approved/Enrolled      2938.
 7      77010 AnPhA-S116-… F      Learning Prefere… Approved/Enrolled      1533.
 8      85249 AnPhA-S116-… F      Course Unavailab… Approved/Enrolled      1210.
 9      85411 AnPhA-S116-… F      Scheduling Confl… Approved/Enrolled       473.
10      85583 AnPhA-S116-… F      Scheduling Confl… Approved/Enrolled      5532.
# ℹ 706 more rows
…
